{
  "project_info": {
    "project_number": "157820743368",
    "firebase_url": "https://qismo-44776.firebaseio.com",
    "project_id": "qismo-44776",
    "storage_bucket": "qismo-44776.appspot.com"
  },
  "client": [
    {
      "client_info": {
        "mobilesdk_app_id": "1:157820743368:android:165e1a471af4c6d3367ffd",
        "android_client_info": {
          "package_name": "com.qismowebviewcache"
        }
      },
      "oauth_client": [
        {
          "client_id": "157820743368-u243hr456v8dfjeoejj756am9i634g6b.apps.googleusercontent.com",
          "client_type": 3
        }
      ],
      "api_key": [
        {
          "current_key": "AIzaSyB__MU1tgeJNopOL-1EJWnk94geNGJqYKw"
        },
        {
          "current_key": "AIzaSyB__MU1tgeJNopOL-1EJWnk94geNGJqYKw"
        }
      ],
      "services": {
        "appinvite_service": {
          "other_platform_oauth_client": [
            {
              "client_id": "157820743368-u243hr456v8dfjeoejj756am9i634g6b.apps.googleusercontent.com",
              "client_type": 3
            }
          ]
        }
      }
    },
    {
      "client_info": {
        "mobilesdk_app_id": "1:157820743368:android:5941d44b9899317a367ffd",
        "android_client_info": {
          "package_name": "com.samplechat"
        }
      },
      "oauth_client": [
        {
          "client_id": "157820743368-u243hr456v8dfjeoejj756am9i634g6b.apps.googleusercontent.com",
          "client_type": 3
        }
      ],
      "api_key": [
        {
          "current_key": "AIzaSyB__MU1tgeJNopOL-1EJWnk94geNGJqYKw"
        },
        {
          "current_key": "AIzaSyB__MU1tgeJNopOL-1EJWnk94geNGJqYKw"
        }
      ],
      "services": {
        "appinvite_service": {
          "other_platform_oauth_client": [
            {
              "client_id": "157820743368-u243hr456v8dfjeoejj756am9i634g6b.apps.googleusercontent.com",
              "client_type": 3
            }
          ]
        }
      }
    }
  ],
  "configuration_version": "1"
}